64
/home/checker/pgp/ivanov/kp/out/img_%d.data
640 480 60
7.0 3.0 0.0 2.0 1.0 2.0 6.0 1.0 0.0 0.0
2.0 0.0 0.0 0.5 0.1 1.0 4.0 1.0 0.0 0.0
2.0 0.0 0.0 1.0 0.0 0.0 1.0 0.9 0.1 5
0.0 2.0 0.0 0.0 1.0 0.0 0.75 0.8 0.2 5
0.0 0.0 0.0 0.0 0.7 0.7 0.5 0.7 0.3 5
-5.0 -5.0 -1.0 -5.0 5.0 -1.0 5.0 5.0 -1.0 5.0 -5.0 -1.0 ~/floor.data 0.0 1.0 0.0 0.5
2
-10.0 0.0 10.0 1.0 1.0 1.0
1.0 0.0 10.0 0.0 0.0 1.0
10 16
